tb_cache.vcd
$date
	Sun Apr 19 22:54:58 2026
$end
$version
	Icarus Verilog
$end
$timescale
	1ps
$end
$scope module tb_cache $end
$var wire 1 ! o_miss $end
$var wire 64 " o_mem_wr_data [63:0] $end
$var wire 32 # o_mem_wr_addr [31:0] $end
$var wire 1 $ o_mem_wr $end
$var wire 64 % o_mem_rd_data [63:0] $end
$var wire 32 & o_mem_rd_addr [31:0] $end
$var wire 1 ' o_mem_rd $end
$var wire 1 ( o_hit $end
$var wire 32 ) o_cpu_data [31:0] $end
$var parameter 32 * BLOCK_SIZE $end
$var parameter 32 + CACHE_SIZE $end
$var parameter 64 , DW $end
$var parameter 32 - EVICT_POLICY $end
$var parameter 32 . N $end
$var parameter 32 / WAYS $end
$var reg 1 0 clk $end
$var reg 32 1 i_addr [31:0] $end
$var reg 32 2 i_cpu_data [31:0] $end
$var reg 2 3 i_funct [1:0] $end
$var reg 64 4 i_mem_data [63:0] $end
$var reg 1 5 i_mem_ready $end
$var reg 1 6 i_mem_valid $end
$var reg 1 7 i_read $end
$var reg 1 8 i_write $end
$var reg 1 9 rstn $end
$var integer 32 : cyc [31:0] $end
$var integer 32 ; fail_cnt [31:0] $end
$var integer 32 < log_fd [31:0] $end
$var integer 32 = pass_cnt [31:0] $end
$scope module dut $end
$var wire 32 > i_addr [31:0] $end
$var wire 1 0 i_clk $end
$var wire 32 ? i_cpu_data [31:0] $end
$var wire 2 @ i_funct [1:0] $end
$var wire 64 A i_mem_data [63:0] $end
$var wire 1 5 i_mem_ready $end
$var wire 1 6 i_mem_valid $end
$var wire 1 7 i_read $end
$var wire 1 9 i_rstn $end
$var wire 1 8 i_write $end
$var wire 2 B victim_way [1:0] $end
$var wire 19 C current_tag [18:0] $end
$var wire 3 D current_off [2:0] $end
$var wire 10 E current_idx [9:0] $end
$var parameter 32 F BLOCK_SIZE $end
$var parameter 32 G CACHE_SIZE $end
$var parameter 32 H EVICT_POLICY $end
$var parameter 3 I IDLE $end
$var parameter 32 J IDX_BITS $end
$var parameter 3 K LOOKUP $end
$var parameter 3 L MISS_READY $end
$var parameter 3 M MISS_VALID $end
$var parameter 64 N NUM_SETS $end
$var parameter 32 O OFF_BITS $end
$var parameter 34 P TAG_BITS $end
$var parameter 64 Q TOTAL_SIZE_BYTES $end
$var parameter 32 R WAYS $end
$var parameter 3 S WB_READY $end
$var parameter 3 T WB_VALID $end
$var reg 1 U hit $end
$var reg 2 V hit_way [1:0] $end
$var reg 3 W next_state [2:0] $end
$var reg 32 X o_cpu_data [31:0] $end
$var reg 1 ( o_hit $end
$var reg 1 ' o_mem_rd $end
$var reg 32 Y o_mem_rd_addr [31:0] $end
$var reg 64 Z o_mem_rd_data [63:0] $end
$var reg 1 $ o_mem_wr $end
$var reg 32 [ o_mem_wr_addr [31:0] $end
$var reg 64 \ o_mem_wr_data [63:0] $end
$var reg 1 ! o_miss $end
$var reg 4 ] packed_valid [3:0] $end
$var reg 3 ^ state [2:0] $end
$var integer 32 _ v [31:0] $end
$var integer 32 ` w [31:0] $end
$scope module replace_logic $end
$var wire 32 a base [31:0] $end
$var wire 1 b iAccessValid $end
$var wire 32 c iAddress [31:0] $end
$var wire 1 0 iClk $end
$var wire 1 U iHit $end
$var wire 2 d iHitWay [1:0] $end
$var wire 1 e iMiss $end
$var wire 1 9 iRstN $end
$var wire 10 f iSetIndex [9:0] $end
$var wire 4 g iValidBits [3:0] $end
$var wire 1 h lruVictim2way $end
$var wire 32 i oPrefetchAddr [31:0] $end
$var wire 1 j oPrefetchReq $end
$var wire 2 k oVictimWay [1:0] $end
$var wire 1 l plruVictim2way $end
$var wire 32 m next [31:0] $end
$var parameter 32 n ASSOC $end
$var parameter 32 o BLOCK_SIZE $end
$var parameter 1 p IS_LRU $end
$var parameter 64 q NUM_SETS $end
$var parameter 33 r TREE_BITS $end
$var parameter 32 s WAY_BITS $end
$var reg 2 t invalidWayIndex [1:0] $end
$var reg 1 u isInvalid $end
$var reg 2 v lruVictimNway [1:0] $end
$var reg 2 w oVictimWayTemp [1:0] $end
$var reg 2 x plruVictimNway [1:0] $end
$var integer 32 y e [31:0] $end
$var integer 32 z g [31:0] $end
$var integer 32 { i [31:0] $end
$var integer 32 | k [31:0] $end
$var integer 32 } lp [31:0] $end
$var integer 32 ~ x [31:0] $end
$var integer 32 !" y [31:0] $end
$var integer 32 "" z [31:0] $end
$scope begin plruUpdate $end
$var reg 2 #" node [1:0] $end
$var integer 32 $" nL [31:0] $end
$upscope $end
$scope begin selectlru $end
$var reg 2 %" max [1:0] $end
$upscope $end
$scope begin selectplru $end
$var reg 2 &" node [1:0] $end
$var reg 2 '" wayIndex [1:0] $end
$var integer 32 (" l [31:0] $end
$var integer 32 )" nL [31:0] $end
$upscope $end
$upscope $end
$scope begin $ivl_for_loop0 $end
$var integer 32 *" i [31:0] $end
$scope begin $ivl_for_loop1 $end
$var integer 32 +" j [31:0] $end
$upscope $end
$upscope $end
$upscope $end
$scope task check_cycle $end
$var reg 1 ," fail $end
$var integer 32 -" c [31:0] $end
$upscope $end
$upscope $end
$enddefinitions $end
$comment Show the parameter values. $end
$dumpall
b10 s
b11 r
b10000000000 q
1p
b1000 o
b100 n
b101 T
b100 S
b100 R
b1000000000000000 Q
b10011 P
b11 O
b10000000000 N
b11 M
b10 L
b1 K
b1010 J
b0 I
b0 H
b100000 G
b1000 F
b100 /
b110010 .
b0 -
b1000000 ,
b100000 +
b1000 *
$end
#0
$dumpvars
bx -"
x,"
bx +"
bx *"
bx )"
bx ("
bx '"
bx &"
b0 %"
bx $"
bx #"
bx ""
b100 !"
bx ~
bx }
bx |
b100 {
bx z
bx y
bx x
b0 w
b0 v
1u
b0 t
bx m
xl
b0 k
xj
bx i
xh
b0 g
bx f
ze
bx d
bz c
xb
bx000 a
bx `
bx _
bx ^
bx ]
bx \
bx [
bx Z
bx Y
bx X
bx W
bx V
xU
bx E
bx D
bx C
b0 B
bx A
bx @
bx ?
bx >
b0 =
b10000000000000000000000000000011 <
b0 ;
bx :
09
x8
x7
x6
x5
bx 4
bx 3
bx 2
bx 1
00
bx )
0(
0'
bx &
bx %
0$
bx #
bx "
0!
$end
#5000
b0 )
b0 X
b100 _
b100 `
b0 V
b0 d
0U
b100 !"
b0 x
b10 ("
b10 )"
b0 '"
b11 &"
b0 W
b0 ^
b100 +"
b10000000000 *"
b10000000000 ~
b100 |
b10000000000 ""
b10000000000 z
10
#10000
00
#15000
b100 +"
b10000000000 *"
b10000000000 z
b100 |
b10000000000 ""
b10000000000 ~
10
#16000
b0 :
19
#20000
00
#25000
10
#26000
b10 ("
b11 &"
b100 !"
1h
b100 `
b0 ]
b100 _
b10011 C
0l
b1111100001 E
b1111100001 f
b100 D
1b
b10 W
1!
b101111111001011111100110010111010111011110001111001100110011000 4
b101111111001011111100110010111010111011110001111001100110011000 A
06
15
b1110010001000100001100001111001 2
b1110010001000100001100001111001 ?
b100111111100001100 1
b100111111100001100 >
b0 3
b0 @
08
17
#30000
b1 :
b1 ;
1,"
b0 -"
00
#35000
b11 W
b100111111100001000 &
b100111111100001000 Y
1'
1!
b10 ^
10
#36000
1!
1'
b10 W
b111001110101110111010101010110011001001001001011010110100110 4
b111001110101110111010101010110011001001001001011010110100110 A
05
#40000
b10 :
b10 ;
1,"
b1 -"
00
#45000
10
#46000
b11 W
1!
1'
b10100001110111110001011100011010101111100000011011000000000 4
b10100001110111110001011100011010101111100000011011000000000 A
16
15
#50000
b11 :
b11 ;
1,"
b10 -"
00
#55000
b0 W
1!
0'
b11 ^
10
#56000
1!
b11 W
b10111011111110001011101001111001001101100111001000011000000001 4
b10111011111110001011101001111001001101100111001000011000000001 A
06
05
#60000
b100 :
b100 ;
1,"
b11 -"
00
#65000
10
#66000
b0 W
1!
b110111000000101010010101000011010011100011001100010001100001011 4
b110111000000101010010101000011010011100011001100010001100001011 A
16
15
#70000
b101 :
b101 ;
1,"
b100 -"
00
#75000
1(
b11111111111111111111111110000110 )
b11111111111111111111111110000110 X
b1 ]
b100 _
1U
b100 `
b0 W
0!
b0 ^
10
#76000
b10 W
1!
b10 ("
b11 &"
b100 !"
b100 `
0U
b0 ]
b100 _
b11001 C
b1000111011 E
b1000111011 f
b0 )
b0 X
0(
b100101011111001010111010011101101110100000101111100100110011110 4
b100101011111001010111010011101101110100000101111100100110011110 A
b1100001111010010000011101101011 2
b1100001111010010000011101101011 ?
b110011000111011100 1
b110011000111011100 >
b10 3
b10 @
18
07
#80000
b110 :
b110 ;
1,"
b101 -"
00
#85000
b11 W
b110011000111011000 &
b110011000111011000 Y
1'
1!
b10 ^
10
#86000
1!
1'
b10 W
b1001011101110111000010111101110010011011101011100010101101110011 4
b1001011101110111000010111101110010011011101011100010101101110011 A
06
05
#90000
b111 :
b111 ;
1,"
b110 -"
00
#95000
10
#96000
b11 W
1!
1'
b1000000000011111100101111000111110111100100001100111001100010 4
b1000000000011111100101111000111110111100100001100111001100010 A
16
15
#100000
b1000 :
b1000 ;
1,"
b111 -"
00
#105000
b0 W
1!
0'
b11 ^
10
#106000
1!
b11 W
b100110100000100000110010011101110101111001111010111000010101110 4
b100110100000100000110010011101110101111001111010111000010101110 A
06
05
#110000
b1001 :
b1001 ;
1,"
b1000 -"
00
#115000
10
#116000
b0 W
1!
b1111110011100011111101101010100001000001011001110100001100100 4
b1111110011100011111101101010100001000001011001110100001100100 A
16
15
#120000
b1010 :
b1010 ;
1,"
b1001 -"
00
#125000
1(
b11111100111000111111011010101 )
b11111100111000111111011010101 X
b1 ]
b100 _
1U
b100 `
b0 W
0!
b0 ^
10
#126000
b10 W
1!
b10 ("
b11 &"
b100 !"
b100 `
0U
b0 ]
b100 _
b1000101 C
b1111101010 E
b1111101010 f
b0 D
b0 )
b0 X
0(
b100001000101110101010011100000101001111011011001000010100110101 4
b100001000101110101010011100000101001111011011001000010100110101 A
b10010001010101001100111100000011 2
b10010001010101001100111100000011 ?
b10001011111101010000 1
b10001011111101010000 >
b0 3
b0 @
08
17
#130000
b1011 :
b1011 ;
1,"
b1010 -"
00
#135000
b11 W
b10001011111101010000 &
b10001011111101010000 Y
1'
1!
b10 ^
10
#136000
1!
1'
b10 W
b1111100011010111110001100111001111110000011001011110010111101101 4
b1111100011010111110001100111001111110000011001011110010111101101 A
06
05
#140000
b1100 :
b1100 ;
1,"
b1011 -"
00
#145000
10
#146000
b11 W
1!
1'
b1001100110111010111010110101001100010110100100100011001010000101 4
b1001100110111010111010110101001100010110100100100011001010000101 A
16
15
#150000
b1101 :
b1101 ;
1,"
b1100 -"
00
#155000
b0 W
1!
0'
b11 ^
10
#156000
1!
b11 W
b101111110110010100111101100001100011101111110100010110001010 4
b101111110110010100111101100001100011101111110100010110001010 A
06
05
#160000
b1110 :
b1110 ;
1,"
b1101 -"
00
#165000
10
#166000
b0 W
1!
b1101010010010110010110111111011101000111100110111000101001000110 4
b1101010010010110010110111111011101000111100110111000101001000110 A
16
15
#170000
b1111 :
b1111 ;
1,"
b1110 -"
00
#175000
1(
b1000110 )
b1000110 X
b1 ]
b100 _
1U
b100 `
b0 W
0!
b0 ^
10
#176000
b10 W
1!
b10 ("
b11 &"
b100 !"
b100 `
0U
b0 ]
b100 _
0(
b0 )
b0 X
b1100010 C
b1101100011 E
b1101100011 f
b100 D
b10010001001011110011010010101000010011000001001111110001101100 4
b10010001001011110011010010101000010011000001001111110001101100 A
b1100101000101101111010010000000 2
b1100101000101101111010010000000 ?
b11000101101100011100 1
b11000101101100011100 >
#180000
b10000 :
b10000 ;
1,"
b1111 -"
00
#185000
b11 W
b11000101101100011000 &
b11000101101100011000 Y
1'
1!
b10 ^
10
#186000
1!
1'
b10 W
b100000011110100000011001010110100101101101011101011001010 4
b100000011110100000011001010110100101101101011101011001010 A
06
05
#190000
b10001 :
b10001 ;
1,"
b10000 -"
00
#195000
10
#196000
b11 W
1!
1'
b1100010110011011000100101110110101011011101001100001110111101010 4
b1100010110011011000100101110110101011011101001100001110111101010 A
16
15
#200000
b10010 :
b10010 ;
1,"
b10001 -"
00
#205000
b0 W
1!
0'
b11 ^
10
#206000
1!
b11 W
b1101110011011001100111110111001101010100000110000001000001011110 4
b1101110011011001100111110111001101010100000110000001000001011110 A
06
05
#210000
b10011 :
b10011 ;
1,"
b10010 -"
00
#215000
10
#216000
b0 W
1!
b100111110101011010100111010101010111010100101111010001101000110 4
b100111110101011010100111010101010111010100101111010001101000110 A
16
15
#220000
b10100 :
b10100 ;
1,"
b10011 -"
00
#225000
1(
b11111111111111111111111110101010 )
b11111111111111111111111110101010 X
b1 ]
b100 _
1U
b100 `
b0 W
0!
b0 ^
10
#226000
b10 W
1!
b10 ("
b11 &"
b100 !"
b100 `
0U
b0 ]
b100 _
b0 )
b0 X
b1100001 C
b110000101 E
b110000101 f
0(
b1110001110001111011110000110001000011110111110001011011011011001 4
b1110001110001111011110000110001000011110111110001011011011011001 A
b10111000110000110100010000000100 2
b10111000110000110100010000000100 ?
b11000010110000101100 1
b11000010110000101100 >
18
07
#230000
b10101 :
b10101 ;
1,"
b10100 -"
00
#235000
b11 W
b11000010110000101000 &
b11000010110000101000 Y
1'
1!
b10 ^
10
#236000
1!
1'
b10 W
b1100010101000001011111100000101010000101101101010110110100011100 4
b1100010101000001011111100000101010000101101101010110110100011100 A
06
05
#240000
b10110 :
b10110 ;
1,"
b10101 -"
00
#245000
10
#246000
b11 W
1!
1'
b11001110000000110110011001100001000111001011010001001111001 4
b11001110000000110110011001100001000111001011010001001111001 A
16
15
#250000
b10111 :
b10111 ;
1,"
b10110 -"
00
#255000
b0 W
1!
0'
b11 ^
10
#256000
1!
b11 W
b101000010010000100000101011001011101000001000110011111110011010 4
b101000010010000100000101011001011101000001000110011111110011010 A
06
05
#260000
b11000 :
b11000 ;
1,"
b10111 -"
00
#265000
10
#266000
b0 W
1!
b110100110001010110000010011001100111010111100010001001110011001 4
b110100110001010110000010011001100111010111100010001001110011001 A
16
15
#270000
b11001 :
b11001 ;
1,"
b11000 -"
00
#275000
1(
b110011 )
b110011 X
b1 ]
b100 _
1U
b100 `
b0 W
0!
b0 ^
10
#276000
b10 ("
b11 &"
b100 !"
b100 `
0U
b0 ]
b100 _
0j
b1010001 C
b1001101 E
b1001101 f
b0 D
b0 )
b0 X
0b
0(
b100101010110001001010011110000111101110100111111100111001001011 4
b100101010110001001010011110000111101110100111111100111001001011 A
b11011000000011010101111110100 2
b11011000000011010101111110100 ?
b10100010001001101000 1
b10100010001001101000 >
b1 3
b1 @
08
#280000
b11010 :
b11010 ;
1,"
b11001 -"
00
#285000
10
#286000
b10 ("
b11 &"
b100 !"
b100 `
b100 _
b1100111 C
b101101000 E
b101101000 f
b100 D
b1100110100110111001011110110101011100100111000101000101001010011 4
b1100110100110111001011110110101011100100111000101000101001010011 A
b11111010000010010011111110110 2
b11111010000010010011111110110 ?
b11001110101101000100 1
b11001110101101000100 >
#290000
b11011 :
b11011 ;
1,"
b11010 -"
00
#295000
10
#296000
b10 ("
b11 &"
b100 !"
b100 `
b100 _
b1101000 C
b1011010010 E
b1011010010 f
b101000111101000000111000100010100111010101001010110110100000000 4
b101000111101000000111000100010100111010101001010110110100000000 A
b1011010010000011111001111001100 2
b1011010010000011111001111001100 ?
b11010001011010010100 1
b11010001011010010100 >
b0 3
b0 @
#300000
b11100 :
b11100 ;
1,"
b11011 -"
00
#305000
10
#306000
b10 ("
b11 &"
b100 !"
b100 `
b100 _
xj
b1111 C
b101011110 E
b101011110 f
1b
b10 W
1!
b100101010100000101000100001101010011111000011100010110001 4
b100101010100000101000100001101010011111000011100010110001 A
b1000100111110000011010011101001 2
b1000100111110000011010011101001 ?
b11110101011110100 1
b11110101011110100 >
18
#310000
b11101 :
b11101 ;
1,"
b11100 -"
00
#315000
b11 W
b11110101011110000 &
b11110101011110000 Y
1'
1!
b10 ^
10
#316000
1!
1'
b10 W
b1111000100101011010100100011100010000100100011101011001101100111 4
b1111000100101011010100100011100010000100100011101011001101100111 A
06
05
#320000
b11110 :
b11110 ;
1,"
b11101 -"
00
#325000
10
#326000
b11 W
1!
1'
b101110100010000111110000100000111110110001111110100000010110010 4
b101110100010000111110000100000111110110001111110100000010110010 A
16
15
#330000
b11111 :
b11111 ;
1,"
b11110 -"
00
#335000
b0 W
1!
0'
b11 ^
10
#336000
1!
b11 W
b111111110110110010011010010010101001000111111110000100101000100 4
b111111110110110010011010010010101001000111111110000100101000100 A
06
05
#340000
b100000 :
b100000 ;
1,"
b11111 -"
00
#345000
10
#346000
b0 W
1!
b1001110011111010100000000110100100001101000010000100011101011000 4
b1001110011111010100000000110100100001101000010000100011101011000 A
16
15
#350000
b100001 :
b100001 ;
1,"
b100000 -"
00
#355000
1(
b1101001 )
b1101001 X
b1 ]
b100 _
1U
b100 `
b0 W
0!
b0 ^
10
#356000
b10 W
1!
b10 ("
b11 &"
b100 !"
b100 `
0U
b0 ]
b100 _
b1111110 C
b10100111 E
b10100111 f
b0 D
b0 )
b0 X
0(
b1110100010100010001111011010111000100101100001110111110101110010 4
b1110100010100010001111011010111000100101100001110111110101110010 A
b10001101100010100110011011000101 2
b10001101100010100110011011000101 ?
b11111100010100111000 1
b11111100010100111000 >
b1 3
b1 @
08
17
#360000
b100010 :
b100010 ;
1,"
b100001 -"
00
#365000
b11 W
b11111100010100111000 &
b11111100010100111000 Y
1'
1!
b10 ^
10
#366000
1!
1'
b10 W
b1010110000010100110000100101111000111100001111011011101011001101 4
b1010110000010100110000100101111000111100001111011011101011001101 A
06
05
#370000
b100011 :
b100011 ;
1,"
b100010 -"
00
#375000
10
#376000
b11 W
1!
1'
b101111001111000101000011111101110100010011001101000100111010001 4
b101111001111000101000011111101110100010011001101000100111010001 A
16
15
#380000
b100100 :
b100100 ;
1,"
b100011 -"
00
#385000
b0 W
1!
0'
b11 ^
10
#386000
1!
b11 W
b1011111001100110101010010011001010010100000100010111110110010 4
b1011111001100110101010010011001010010100000100010111110110010 A
06
05
#390000
b100101 :
b100101 ;
1,"
b100100 -"
00
#395000
10
#396000
b0 W
1!
b101011011011100101110101001110101101001110000000010010110110 4
b101011011011100101110101001110101101001110000000010010110110 A
16
15
#400000
b100110 :
b100110 ;
1,"
b100101 -"
00
#405000
1(
b10010110110 )
b10010110110 X
b1 ]
b100 _
1U
b100 `
b0 W
0!
b0 ^
10
#406000
b10 W
1!
b10 ("
b11 &"
b100 !"
b100 `
0U
b0 ]
b100 _
b0 )
b0 X
b1011000 C
b111000010 E
b111000010 f
b100 D
0(
b1000001111001111001110010101100110100101000110000010110011110000 4
b1000001111001111001110010101100110100101000110000010110011110000 A
b1100101110001110100011110100111 2
b1100101110001110100011110100111 ?
b10110000111000010100 1
b10110000111000010100 >
18
07
#410000
b100111 :
b100111 ;
1,"
b100110 -"
00
#415000
b11 W
b10110000111000010000 &
b10110000111000010000 Y
1'
1!
b10 ^
10
#416000
1!
1'
b10 W
b1110111111010110001000111010110001010111101111000001110100110101 4
b1110111111010110001000111010110001010111101111000001110100110101 A
06
05
#420000
b101000 :
b101000 ;
1,"
b100111 -"
00
#425000
10
#426000
b11 W
1!
1'
b1110110010001010111000001011001001000010001110101010100000101100 4
b1110110010001010111000001011001001000010001110101010100000101100 A
16
15
#430000
b101001 :
b101001 ;
1,"
b101000 -"
00
#435000
b0 W
1!
0'
b11 ^
10
#436000
1!
b11 W
b1101000111111011100011101000010010000111010000100011110111111111 4
b1101000111111011100011101000010010000111010000100011110111111111 A
06
05
#440000
b101010 :
b101010 ;
1,"
b101001 -"
00
#445000
10
#446000
b0 W
1!
b1011111110111111001011000111011100110111000011010001000110000 4
b1011111110111111001011000111011100110111000011010001000110000 A
16
15
#450000
b101011 :
b101011 ;
1,"
b101010 -"
00
#455000
1(
b11111111111111111110010110001110 )
b11111111111111111110010110001110 X
b1 ]
b100 _
1U
b100 `
b0 W
0!
b0 ^
10
#456000
b10 ("
b11 &"
b100 !"
b100 `
0U
b0 ]
b100 _
0j
b1110001 C
b1000110000 E
b1000110000 f
b0 D
b0 )
b0 X
0b
0(
b101011001000111010110011011001110111001110110001110010111011011 4
b101011001000111010110011011001110111001110110001110010111011011 A
b1100111100011011101100000110101 2
b1100111100011011101100000110101 ?
b11100011000110000000 1
b11100011000110000000 >
b10 3
b10 @
08
#460000
b101100 :
b101100 ;
1,"
b101011 -"
00
#465000
10
#466000
b10 ("
b11 &"
b100 !"
b100 `
b100 _
xj
b1001101 C
b1001111101 E
b1001111101 f
b100 D
1b
b10 W
1!
b1010010011011001000101011110111100101001110010011110011010101011 4
b1010010011011001000101011110111100101001110010011110011010101011 A
b10010100101001111110000011111101 2
b10010100101001111110000011111101 ?
b10011011001111101100 1
b10011011001111101100 >
b1 3
b1 @
17
#470000
b101101 :
b101101 ;
1,"
b101100 -"
00
#475000
b11 W
b10011011001111101000 &
b10011011001111101000 Y
1'
1!
b10 ^
10
#476000
1!
1'
b10 W
b1100111110000101010011111100100000001010010000010100101001110 4
b1100111110000101010011111100100000001010010000010100101001110 A
06
05
#480000
b101110 :
b101110 ;
1,"
b101101 -"
00
#485000
10
#486000
b11 W
1!
1'
b1000110001111100101100010111001010100110111111100011100100101101 4
b1000110001111100101100010111001010100110111111100011100100101101 A
16
15
#490000
b101111 :
b101111 ;
1,"
b101110 -"
00
#495000
b0 W
1!
0'
b11 ^
10
#496000
1!
b11 W
b1011011000000100001111000111111001010011001011011011111101011101 4
b1011011000000100001111000111111001010011001011011011111101011101 A
06
05
#500000
b110000 :
b110000 ;
1,"
b101111 -"
00
#505000
10
#506000
b0 W
1!
b1010011010111110110110011011100010101000010011101001000110001010 4
b1010011010111110110110011011100010101000010011101001000110001010 A
16
15
#510000
b110001 :
b110001 ;
1,"
b110000 -"
00
#515000
1(
b11111111111111111101100110111000 )
b11111111111111111101100110111000 X
b1 ]
b100 _
1U
b100 `
b0 W
0!
b0 ^
10
#516000
b10 W
1!
b10 ("
b11 &"
b100 !"
b100 `
0U
b0 ]
b100 _
b0 )
b0 X
b1111100 C
b1000101110 E
b1000101110 f
b0 D
0(
b1011110000010010111101010001001000011010000000011111010010111 4
b1011110000010010111101010001001000011010000000011111010010111 A
b11111010100110001011100011100101 2
b11111010100110001011100011100101 ?
b11111001000101110000 1
b11111001000101110000 >
18
07
#520000
b110010 :
b110010 ;
1,"
b110001 -"
00
#525000
b11 W
b11111001000101110000 &
b11111001000101110000 Y
1'
1!
b10 ^
10
#526000
0j
0b
1!
1'
b10 W
06
05
08
